<?xml version="1.0" encoding="utf-8"?>
<!-- Generator: Adobe Illustrator 23.0.1, SVG Export Plug-In . SVG Version: 6.00 Build 0)  -->
<svg version="1.1" id="Layer_1" xmlns="http://www.w3.org/2000/svg" xmlns:xlink="http://www.w3.org/1999/xlink" x="0px" y="0px"
	 viewBox="0 0 12.223 11.605" style="enable-background:new 0 0 12.223 11.605;" xml:space="preserve" preserveAspectRatio="xMinYMax slice">
<style type="text/css">
	.st0{fill:#FFD0D9;}
</style>
<path class="st0" d="M0.425,11.605h0.004l-0.002-0.002L0.425,11.605z M11.779,11.605h0.442v-0.416l-0.434,0.408L11.779,11.605z M0,0
	v0.4L0.422,0H0z M11.789,0.003l-5.677,5.39L6.108,5.397L0.42,0.003L0,0.402v0.021l5.674,5.383l-5.672,5.385L0,11.193v0.412h0.415
	l0.018-0.017L6.099,6.21l5.68,5.391l0.434-0.412L6.532,5.801L6.543,5.79l5.68-5.39V0.003H11.789z"/>
</svg>
