// Jest Snapshot v1, https://goo.gl/fbAQLP

exports[`The \`Checkbox\` component renders correctly 1`] = `
<WithStyles(ForwardRef(FormControlLabel))
  control={
    <ForwardRef(WithStyles)
      checked={false}
      color="secondary"
      disabled={true}
      inputProps={Object {}}
      name="MyFancyCheckbox"
    />
  }
/>
`;
